[
  {
    "image": "img/blog-AI-intro.jpg",
    "title": "Last Part: Unlock the Potential with Artificial Intelligence",
    "date":"13 Dec, 2018",
    "author": "Yousuf Alam",
    "authors" : [
      {"name": "Yousuf Alam","section": "Emerging Technology & Innovation"}
    ],
    "usemap": null,
    "state": "main.blogs.details({title:blog.title})",
    "btn": "Read",
    "video": false,
    "headContent": false,
    "infographics": "img/AI-blog-last-part.jpg"
  },
  {
    "image": "img/blog-AI-intro.jpg",
    "title": "Part-6: Unlock the Potential with Artificial Intelligence",
    "date":"13 Dec, 2018",
    "author": "Yousuf Alam",
    "authors" : [
      {"name": "Yousuf Alam","section": "Emerging Technology & Innovation"}
    ],
    "usemap": null,
    "state": "main.blogs.details({title:blog.title})",
    "btn": "Read",
    "video": false,
    "headContent": false,
    "infographics": "img/AI-blog-Part-6.jpg"
  },
  {
    "image": "img/blog-AI-intro.jpg",
    "title": "Part-5: Unlock the Potential with Artificial Intelligence",
    "date":"5 Dec, 2018",
    "author": "Yousuf Alam",
    "authors" : [
      {"name": "Yousuf Alam","section": "Emerging Technology & Innovation"}
    ],
    "usemap": null,
    "state": "main.blogs.details({title:blog.title})",
    "btn": "Read",
    "video": false,
    "headContent": false,
    "infographics": "img/AI-blog-Part-5.jpg"
  },
  {
    "image": "img/blog-AI-intro.jpg",
    "title": "Part-4: Unlock the Potential with Artificial Intelligence",
    "date":"4 Dec, 2018",
    "author": "Yousuf Alam",
    "authors" : [
      {"name": "Yousuf Alam","section": "Emerging Technology & Innovation"}
    ],
    "usemap": null,
    "state": "main.blogs.details({title:blog.title})",
    "btn": "Read",
    "video": false,
    "headContent": false,
    "infographics": "img/AI-blog-Part-4.jpg"
  },
  {
    "image": "img/blog-singularity.jpg",
    "title": "Singularity",
    "date":"11 Nov, 2018",
    "author" : "Abrar Ahmed",
    "authors" : [
      {"name": "Abrar Ahmed","section": "Technology Program Managment"}
    ],
    "usemap": null,
    "state": "main.blogs.details({title:blog.title})",
    "btn": "Read",
    "video": false,
    "headContent": [
      {"subheading": "", "para": "The everlasting thirst for power, superiority & domination by the human race is never ending phenomena. This phenomenon will take us to the next level called Singularity."},
      {"subheading": "", "para": "We are entering a new age. Singularity a merger between human intelligence and machine intelligence is going to create something bigger than itself. One can make a strong case that it's actually the cutting edge of the evolution of intelligence in general because there's no indication that it's occurred anywhere else. To us, that is what human civilization is all about. It is part of our destiny and part of the destiny of evolution to continue to progress ever faster and to grow the power of intelligence exponentially. To contemplate stopping that — to think human beings are fine the way they are — is a misplaced fond remembrance of what human beings used to be. What human beings are is a species that has undergone a cultural and technological evolution, and it's the nature of evolution that it accelerates and that its powers grow exponentially, and that's what we're talking about. The next stage of this will be to amplify our own intellectual powers with the results of our technology."},
      {"subheading": "", "para": "Humans are becoming intimately merged with machines. In some fields, the pace of technology has become so fast that humans can no longer comprehend it without augmenting their own intelligence. This is particularly true of computing, nanotechnology, medicine, and neuroscience, all of which have seen exponential progress. The typical home PC of today has an integrated AI equivalent to over a billion human brains. This machine can think for itself, communicate with its user and suggest new ideas in ways that surpass even the greatest minds on Earth. Due to the flood of data being exchanged on the Internet and elsewhere, these computers receive literally millions of emails and other communications each day. The only way for a user to interpret this avalanche of information is to merge their consciousness with that of the machine."},
      {"subheading": "", "para": "A growing segment of society is now turning to on-person hardware to achieve this. The most advanced method involves the use of microscopic, wireless, implantable devices linking neural activity directly to electronic circuitry. These \"nanobots\" have already been used in full immersion VR and medical procedures. The latest versions are capable of marrying AI with human intelligence in ways that combine the best aspects of both. No monitor or projector of any kind is required for the latest generation of computers. The nanobots can instead produce a virtual image of the screen which is augmented in the user's field of vision. This operating system is controlled by their thoughts – and those of the AI – running at speeds vastly greater than a real-time physical version would allow. Many individual actions can be performed at once, thanks to robust wireless connections between the nanobots and neurons."},
      {"subheading": "", "para": "If necessary, a user's entire sensory experience can be instantly shifted to full immersion virtual reality. This is a popular choice for gaming and entertainment, but also has many practical applications in the world of business. Meetings and conferences can be hastily scheduled between vast numbers of participants from around the globe – with barely a few second's notices – often lasting only a few seconds in duration. Communicating at this speed is not possible using conventional means, creating a significant divide between those who have the technology and those without. For many people, nanobot implants are becoming permanent and essential – rather than temporary and optional – due to the sheer speed and level of information now being encountered in day-to-day situations together with the explosive growth of AI. Military personnel, scientists and medical staff were among the first to take advantage of them, but mainstream society is now following."},
      {"subheading": "", "para": "People are merging with machines in various other ways, too. Nanobots can boost immune systems, for example, helping to exterminate pathogens. They can also regulate blood pressure, or repair some of the damage caused by the aging process, or accelerate the healing of wounds. Cybernetic organs are now available that almost never fail and can filter deadly poisons. Brain-computer interfaces are increasingly used in middle-class homes to open doors, control lighting and operate everyday appliances. The most extreme cases of enhancement involve people opting for decentralized circulatory systems, as well as a form of synthetic blood, reducing physical vulnerability still further. This particular option is only available to the wealthy at this stage, as it involves a highly complicated procedure that radically alters their internal anatomy. The end result is that a person can survive multiple gunshot wounds and other internal damage relatively easily. Politicians and a number of famous celebrities are taking advantage of this. It is also popular with gangsters and career criminals. The line between man and machine is starting to blur. Later this century, there will no longer be a clear distinction."},
      {"subheading": "", "para": "I have started working on a Singularity Project called as FINN (Field Intelligence Neural Networks)."}

    ],
    "infographics": false
  },
  {
    "image": "img/blog-AI-intro.jpg",
    "title": "Part-3: Unlock the Potential with Artificial Intelligence",
    "date":"02 Sep, 2018",
    "author": "Hafiz Umar & Yousuf Alam",
    "authors" : [
      {"name": "Hafiz Umar","section": "Performance & Reporting"},
      {"name": "Yousuf Alam","section": "Emerging Technology & Innovation"}
    ],
    "usemap": "AIBlogPart3",
    "mapURL1": "https://espark.etisalat.corp.ae/videos/supervised-learning.mp4",
    "mapURL2": "https://espark.etisalat.corp.ae/videos/unsupervised-learning.mp4",
    "mapURL3": "https://espark.etisalat.corp.ae/videos/reinforcement-learning.mp4",
    "state": "main.blogs.details({title:blog.title})",
    "btn": "Read",
    "video": false,
    "headContent": false,
    "infographics": "img/AI-blog-Part-3.jpg"
  },
  {
    "image": "img/blog-innovator-day.jpg",
    "title": "A day with Innovators on 1st October",
    "date":"10 Oct, 2018",
    "author" : "Dana Issam",
    "authors" : [
      {"name": "Dana Issam","section": "Emerging Technology & Innovation"}
    ],
    "usemap": null,
    "state": "main.blogs.details({title:blog.title})",
    "btn": "Read",
    "video": false,
    "headContent": [
      {"subheading": "", "para": "I woke up early in the morning out of excitement to witness the innovation winners being enabled and incubated under the eSpark umbrella and being a member of eSpark, this was a moment of joy, I have been waiting for. I dressed up and pulled my car off the parking and while on my way to the venue (Armani Hotel), I was preparing the checklist in my head, so that I can immediately act, upon reaching the venue. The hotel was located in Burj Khalifa, as I entered the hotel; I noticed the interior that looked elegant and classy. I was a bit late due to the traffic; therefore, I had to rush to the ballroom, as an organizer, I had to look after the arrangements and manage the event."},
      {"subheading": "", "para": "I grabbed a cup of coffee to have the needed energy. Then I lined up the presenters, some of them were too busy with breakfast, so I had to go back and forth in order to assign their slots and get their presentations. Few minutes were left to kick off the event, attendees started gathering in the hall, and I moved to the control area. We hit the time to kick off the event and Mr. Yasser Alali was hosting the event. MashaAllah, he knows well how to bind the audience and keep everyone intact and surely he did a great job. The agenda started with Mr. Haitham Abdulrazzak (our CTO) keynote to present the strategy to guide our future. His strategy focused on three things, i.e. Customer, People, and Network. He placed a great emphasis on building the capabilities and skills that can prepare our people to develop and manage new technologies. Furthermore, he emphasized on collaboration (positive energy) over the competition (negative energy) as to have a higher impact on our society and contribute to the development of the country. Every time I hear him, his words reenergizes my passion to serve Etisalat better than before."},
      {"subheading": "", "para": "Next, my boss, Mr. Ali Alkaff presented about eSpark programme, and the newly established innovation floor in HOB-A-Level 20 (the Hatch). His presentation was very different which reflects his innovative mindset as he made a good use of analogies for the effective delivery of information.  Then, Mr. Saleh Syed presented about AI programme, its achievements, and targets. Knowing all the hype about AI, no doubt, he has a great responsibility to transform Etisalat and align with the vision of our leaders. Then Mr. Chadi came on the stage to explain his contribution to the development of AI projects. As we all know, he is a forward thinking person; therefore, he let machines present his part. He showed us a video where two bots were talking to each other, one named as Bu Rashid and the other bot named as Sophia landed from the space and came to join Etisalat. Both started to have a conversation and Bu Rashid bot gives an intro about how many bots have been developed and deployed and how many more are planned."},
      {"subheading": "", "para": "After that, Mr. Zeeshan presented the achievements of Operations within Engineering followed by the presentation of a few young innovators regarding their magnificent achievements. Next, the long-awaited CTO Award winners announcement to be made. My colleague Yousuf Alam was one of the nominees for the Youth category and waiting impatiently for the announcement. One after another, the winners were being awarded by the CTO. Finally, his name was called, and I turned my camera on to capture this memorable moment. I am proud to work with him (the shining star of Etisalat), and he deserved the award due to his hard work and supportive nature."},
      {"subheading": "", "para": "After the awards ceremony, it was the lunch time, we all really needed it as our energies were drained. However, the food was limited and not well selected. After that, I rechecked the presentations in the control area, if they are ready and ordered. Few presenters didn’t show up, so I had to call them to ensure their availability. After their amazing presentations and ideas, then the winner was selected through audience voting. We conducted a live digital voting to determine the best idea and Mr. Abrar secured the most votes. His presentation truly added joy and was a unique presenter with an astonishing mind. "},
      {"subheading": "", "para": "Finally, a small workshop was conducted by the CTO to gather the challenges from all the divisions to be solved with the available facilities and expertise offered on newly established innovation floor (The Hatch) and to be led by our great leader Mr. Esmaeel AlHammadi. Then the event was concluded with the CTO’s speech."},
      {"subheading": "", "para": "It was truly a joyous day and a day of celebration for the innovators in Etisalat. "}

    ],
    "infographics": false
  },
  {
    "image": "img/blog-googleHome.jpg",
    "title": "Part-1: The Hatch Gadget - Google Home",
    "date":"10 Oct, 2018",
    "author" : "Yousuf Alam",
    "authors" : [
      {"name": "Yousuf Alam","section": "Emerging Technology & Innovation"}
    ],
    "usemap": null,
    "state": "main.blogs.details({title:blog.title})",
    "btn": "Watch",
    "video": "img/the-hatch-googleHome-episode1.mp4",
    "infographic": false,
    "headContent": [
      {"subheading": "", "para": "Google Home is everywhere, it's on our phones, computers, and now we have Google Home devices. It's an emerging technology that is redefining the user experience enabling zero navigation. Therefore, it's time to unlock the machines smartness."}
    ]
  },

  {
    "image": "img/blog-AI.jpg",
    "title": "Artificial Intelligence Candy",
    "date":"10 Oct, 2018",
    "author" : "Abdul Waheed Ghaffar",
    "authors" : [
      {"name": "Abdul Waheed Ghaffar","section": "Coastal Radio Operations"}
    ],
    "usemap": null,
    "state": "main.blogs.details({title:blog.title})",
    "btn": "Read",
    "video": false,
    "headContent": [
      {"subheading": "", "para": "\"Hey Candy\"...I whisper on my phone...it was pin drop silence in the room and gentle whispering converted into an enigmatic voice and got my wife's attention who started staring at me to understand my mysterious behavior...."},
      {"subheading": "", "para": "It was my first ever conversation with her, there was a short delay of milliseconds before I got a response from Candy...And my heart was pumping so hard, thinking whether or not she will respond as per my expectation!!   And all of a sudden she did .....\"Yes commander....tell me the task.\"..."},
      {"subheading": "", "para": "Oh, don't get confused ...Candy (the name given to my Chatbot) was my first ever Artificial Intelligent Chabot. Chatbot’s are programs built to automatically engage with received messages using Artificial Intelligence Algorithms. People using smart phones are well aware of Alexa and Siri, which are AI Chatbots. Chatbots can be programmed to respond the same way each time, to respond differently to messages containing certain keywords. I was working at home to test if my chatbot named \"Candy\" was remotely able to communicate with Etisalat network. The robot on the other side of phone was waiting for my command where the Intelligent Algo was running to monitor health and Performance of Network backbone Infrastructure...and Alhamdulillah I successfully got the response."},
      {"subheading": "", "para": "This reminded me when \"Graham Bell\" invented the very first wired phone and asked Mr. Watson (his assistant) in the following famous words, \"Mr. Watson come here, I want you\". Here I did not need watson to come and respond becuase \"Candy\" already responded that she is present on the other side and ready to act on my commands... but I can now imagine how happy Graham Bell would be from that achievement...."},
      {"subheading": "", "para": "Artificial intelligence is a hot topic these days. Driven by a fear to loose, companies in many industries have announced AI-focused initiatives. The advent of technological advancement and declining cost of hardware has contributed significantly to make intelligent programs APIs. Recent advancement in the AI has brought about a drop in the cost of predictions, prediction about economy, customer buying trend, device health, human health etc."},
      {"subheading": "", "para": "Prediction is useful because it helps improve decisions. Think about AIs helping to predict the chances an individual has acquiring a certain disease based on his or her genetic information, socio-demographic data and current health status. Another example is computer vision. A face recognition  or emotion analysis mechanism in a \"Cofeebot\" that can offer predictable flavors of cofee to enhance your mood or help to reduce stress  levels just by observing your face, recognizing your emotion , and recalling your preferences based on data that  shop's \"Cofeebot\"  already collected  over the period of time."},
      {"subheading": "", "para":"There has been an understandable concern about AI's potential impact on humans. But theories suggests that AIs will substantially raise the value of human judgment. People who display good judgment will become more valuable, not less. "},
      {"subheading": "", "para": "The evolution of new workforce is a real challenge for C-level management today. It is very clear that companies will be unable to take full advantage of AI if their employees don't trust the machine or if they feel insecure about their job. Resistance to new technology due to fear of losing one's employment is not un common .But in reality technology opens new doors. It may eliminate certain jobs but not work...not at all."},
      {"subheading": "", "para": "UAE's government has taken lot of initiative and has encouraged people to move forward and showcase their skills and creativity. The Government is also encouraging innovation driving economy and taking serious measures in this regard including introducing corporate methodologies and a culture for innovation. Everyone now believes that Artificial Intelligence, Big Data and advanced Robotics are the future and most of the companies especially Etisalat already moving with full thrust to align and prepare for this challenge. "}
    ],
    "infographics": false
  },
  {
    "image": "img/blog-presentation.jpg",
    "title": "Effective Presentation Secret",
    "date":"06 Sep, 2018",
    "author" : "Dana Issam",
    "authors" : [
      {"name": "Dana Issam","section": "Emerging Technology & Innovation"}
    ],
    "usemap": null,
    "state": "main.blogs.details({title:blog.title})",
    "btn": "Read",
    "video": false,
    "headContent": [
      {"subheading": "","para": "The human voice is the most powerful sound in the world; it can start either love or war. Being able to communicate and present information to the team members or management is a necessary skill for one’s career. Especially when it comes to presenting an information to the audience who are not familiar with the topic that you are going to talk about, an effective presentation is essential for the audience to grasp and absorb the information. Often presentations are boring and might lead the audience to sleep, so let’s uncover the secret of developing a catchy presentation to grab the attention of the audience and keep them intact until the end of your presentation."},
      {"subheading": "", "para": "Below are the few tips for an effective presentation."},
      {"subheading": "First Impression:", "para": "Get audience interaction within the first minute by asking a provocative question. For example, “How many people do you think die every year because of smoking?” Get people speaking and responding to you. Add a touch of humor to create a lighter mood, if relevant."},
      {"subheading": "Be Confident:", "para": "Practice in front of people and in front of the mirror to present confidently and smoothly. You shouldn’t read from slides while presenting as it leads to poor delivery of information and distracts the audience. Therefore, the more you practice, the more confident you become."},
      {"subheading": "Storytelling:", "para": "People are more inclined to listen to stories. Present the information as a story by connecting all the events as it will help the audience to better understand."},
      {"subheading": "One message:", "para": "Communicate one message per slide to prevent the audience diversion, as they won't be able to retain their focus due to multiple messages on the slide. The amount of slides have never been the problem, it is the amount of objects per slide."},
      {"subheading": "Body Language:", "para": "While presenting, look at the audience, not at your slides. It allows interaction with the audience and helps to maintain their attention towards you. Make use of hand gestures and facial expressions as relevant to the situation. If the audience is large, make sure to move on both sides of the stage to engage with them. Finally yet importantly, be smiley and pleasant which gives a positive vibe and impression."},
      {"subheading": "No walls of text:", "para": "Use slides to show things that you can’t say. The purpose of a presentation is NOT to make the audience read your slides instead listen to you. Minimize the bullet points or ideally no bullet points as too much text makes the presentation ineffective."},
      {"subheading": "Focal Points:", "para": "Whenever you open your eyes, you will focus on four things, which include moving objects, signaling colors like red, orange, and yellow, contrast rich objects, and big objects. For instance, if you are sitting with your friend talking to her while the television is on with sound muted. Though you having a great conversation with her, you won't find it easy to not to look at the television. Why not? Because it has the moving objects, signaling color, high in contrast, and are big in size. Most often, the heading is biggest in size that is not often the most important point in a slide than the content. The takeaway is that the most important point of your slide should be the biggest."},
      {"subheading": "Voice Tone:", "para":"Vary your voice as relevant to the content. Don’t use a consistent voice throughout the presentation. For example, if you are talking about something exciting, your voice tone will be different."},
      {"subheading": "Visuals:", "para": "Use visuals to tell your story such as pictures, animations, videos, graphs, GIFs, and so on. A picture can paint a thousand words whereas a video can paint a thousand pictures. Visuals last longer in a person’s memory; therefore, it can help the audience remember the content."},
      {"subheading": "Slides Numbering:", "para": "Don't mention the page number like page 12 of 95. This will freak out the audience and make them anxious."},
      {"subheading": "Short and Simple:", "para": "Get to the end fast and avoid long presentation that bores people. Save some time for the audience to ask questions or doubts and provide their feedback. You start to learn when the audience starts talking."},
      {"subheading": "", "para": "Make your next presentation the successful one by following the above tips and wish you good luck!"}
    ],
    "infographics": false
  },
  {
    "image": "img/blog-innovator.jpg",
    "title": "Innovator Attitude",
    "date":"06 Sep, 2018",
    "author" : "Yousuf Alam",
    "authors" : [
      {"name": "Yousuf Alam","section": "Emerging Technology & Innovation"}
    ],
    "usemap": null,
    "state": "main.blogs.details({title:blog.title})",
    "btn": "Read",
    "video": false,
    "headContent": [
      {"subheading": "", "para": "Being able to advance and re-energize our existing systems using emerging technologies and develop top-notch cutting-edge solutions have become a necessity of today’s age. It’s the time to get ready to think big and that demands you to become an innovator.  Let’s read below to see what it takes to become an innovator."},
      {"subheading": "Curious Minds:", "para": "Always find the reason behind things, which allows you to view different perspectives. Most people see a crusty and roasted sandwich but innovators observe the individual ingredients, and the way they relate to each other that has developed the taste and aroma. This approach helps to open up infinite possibilities."},
      {"subheading": "Fail Often:", "para": "The more you fail, the sooner you succeed as failures provide a learning opportunity. They should be an option because every time you fail, you learn from it, and you get up again and again. This is what keeps you going."},
      {"subheading": "Non-defensive Mentality:", "para": "All good ideas evolved from bad ideas. When you think of ideas, do not judge them as silly or bad. Initially, all ideas seem silly, so don’t reject them instead find the potential of how to improve those ideas with the practice of experimentation. Adapt it."},
      {"subheading": "Visualize:", "para": "We all can draw objects. So, draw your ideas as it allows you to get creative. Don’t overthink your ideas, instead draw them and then it helps you to better optimize and improve them. Anything visual gets you halfway there, and you can leverage the online tools to rapidly sketch fancy designs."},
      {"subheading": "Trend Setters:", "para": "There are no new ideas, but a fusion of old ideas. Go out of  the fashion and create something unique using old ideas. Analyze from different angles and experiment with different combinations to build an innovative solution. Don’t fixate your mind in perceiving the functionality of a certain object. When you change the way you look at the things, the things you look at begin the change."},
      {"subheading": "Collaborate:", "para": "Join more brains as it allows achieving more than doing it alone. A solution developed in a collaborative manner finishes sooner and have a higher impact. Also, this allows everyone to become the winner."},
      {"subheading": "Ship Every day:", "para": "Perfection will not happen in one shot. Don’t over-engineer to achieve the perfection as it will lead to complexity and prolong the customer waiting time. Improve in iterations and don’t let it die because of your perfectionism."},
      {"subheading": "", "para": "Embrace the innovator attitude, and be the next disruptor!"}
    ],
    "infographics": false
  },
  {
    "image": "img/blog-AI-intro.jpg",
    "title": "Part-2: Unlock the Potential with Artificial Intelligence",
    "date":"02 Sep, 2018",
    "author" : "Yousuf Alam",
    "authors": [
      {"name": "Yousuf Alam", "section": "Emerging Technology & Innovation"}
    ],
    "usemap": null,
    "state": "main.blogs.details({title:blog.title})",
    "btn": "Read",
    "video": false,
    "headContent": false,
    "infographics": "img/AI-blog-Part-2.jpg"
  },	
  {
    "image": "img/blog-AI-stick.jpg",
    "title": "Unboxing Deep Learning USB",
    "date":"12 Aug, 2018",
    "author" : "Yousuf Alam",
    "authors": [
      {"name": "Yousuf Alam", "section": "Emerging Technology & Innovation"}
    ],
    "usemap": null,
    "state": "main.blogs.details({title:blog.title})",
    "btn": "Read",
    "video": false,
    "infographics": false,
    "headContent": [
      {"subheading": "", "para": "When it comes to building machine learning applications, there are two aspects that require different processing power requirements. First, the model needs to be trained with the millions of data to be able to perform with human equivalent intelligence, and this process demands high processing capability. Second, the trained model is required to perform inference (prediction) which needs low processing power."},
      {"subheading": "","para": "Intel has developed a 3 inch tiny fanless deep learning USB drive bringing machine learning out of the data centers to your fingertips. The USB stick is packed with the low power and high-performance Intel Movidius Myriad 2 Vision Processing Unit (VPU) that can be found in many edge devices such as smart security cameras, drones, and so on. It cannot be used for training a neural network, instead, it is designed for the trained models; therefore, it draws minimal power. Now you can run a neural network on a USB stick."},
      {"subheading": "","para": "The USB stick features profiling and prototyping of neural networks, real-time on-device inference, and visual intelligence (such as image classification). The developers can develop neural networks using Tensorflow and Caffe frameworks as they are supported by the AI compute stick. Additionally, it is compatible with the Android Neural Network API. At the consumption of 1W power, it can offer teraflops (trillions of floating-point operations per second) of performance."},
      {"subheading": "", "para": "The good news is that we have these Intel AI Compute USB sticks available with eSpark. Therefore, if you would like to test your trained model or experience the stick by running available examples, then avail the opportunity and learn AI."}
    ]
  },
  {
    "image": "img/blog-AI-intro.jpg",
    "title": "Part-1: Unlock the Potential with Artificial Intelligence",
    "date":"2 Aug, 2018",
    "author" : "Yousuf Alam",
    "authors": [
      {"name": "Yousuf Alam", "section": "Emerging Technology & Innovation"}
    ],
    "usemap": null,
    "state": "main.blogs.details({title:blog.title})",
    "btn": "Read",
    "video": false,
    "infographics": "img/blog-infographic-AI-intro.jpg",
    "headContent": [
      {"subheading": "","para": "In this digital era, we need to move with speed. As we all know that cloud has abstracted much of the underlying network complexity and this trend of abstracting the complexity will go further on. We are collecting data more than we can handle, its much easier now to create data then to store, analyze, and interpret it. The technology we have that is used to interpret the data is falling behind and this is where AI comes to rescue."},
      {"subheading": "","para": "This post is a first step towards understanding AI and stay tuned for more to come."}
    ]
  },
  {
    "image": "img/blog-IoT-telecom.jpg",
    "title": "Application of IoT based Wireless Sensor Networks in Telecom",
    "date":"2 Aug, 2018",
    "author" : "Jaydeep Sathe",
    "authors": [
      {"name": "Jaydeep Sathe", "section": "Emerging Technology & Innovation"}
    ],
    "usemap": null,
    "state": "main.blogs.details({title:blog.title})",
    "btn": "Read",
    "video": false,
    "infographics": false,
    "headContent": [
      {"subheading": "", "para": "The sensor technologies that make things \"smart\" are only part of the IoT. Connecting all these devices is what turns isolated pockets of technology into a network that generates and pools data in ways that lead to valuable insights. In the words of one commentator, we need no longer settle for dumb tools but can instead look forward to \"enchanted objects.\""},
      {"subheading": "", "para": "Realizing the IoT’s full potential motivates a framework that captures the series and sequence of activities by which organizations create value from information: the Information Value Loop. Getting information around the Value Loop allows an organization to create value. The drivers of information value can be captured and sorted into the three categories: magnitude, risk, and time."},
      {"subheading": "", "para": "Telecommunications equipment maker Nokia has launched a turnkey, sensor-as-a-service offering for Internet of Things (IoT) networks. The idea behind the product is to provide a way for mobile network operators (MNOs), many of which use Nokia cell site equipment, to monetize existing infrastructure, such as towers, by selling live environmental sensor data to cities and others."},
      {"subheading": "", "para": "The offering includes a blockchain smart-contract element, which the Finnish company says will allow MNOs to bill smart city governments for processed and analyzed data. Smart contracts are mechanisms that automatically transfer funds, including micro-payments, between parties when certain conditions are met. They use blockchain decentralized ledgers. There’s minimal capital expense, and the blockchain “anonymized, private and secure micro-transactions” pays the MNO from the city coffers. Nokia, not the MNO, performs all of the edge gateway and sensor installation. Data is stored on Microsoft Azure, Amazon Web Services (AWS), or a private cloud. The Nokia AVA platform or a choice of Amazon IoT or Microsoft IoT performs the data transfer."},
      {"subheading": "", "para": "In the IoT world, CSPs’ biggest challenge is to shift from an environment in which they charge based on volume of traffic and connections to one in which they charge based on level of performance. These companies will have to create networks in which they can guarantee that a particular data communication will take place—every time—with the latency, speed, and error rate that the customer has demanded."},
      {"subheading": "", "para": "The major technological challenge is the actual work of collecting and processing information from multiple sensors and devices—and standardizing it, even as technologies continue to evolve. In order to do this, CSPs will need to implement their QoS capabilities in a standardized way that makes it easier for sensors and applications to take advantage of them."},
      {"subheading": "", "para": "Since IoT devices generate limited volumes of data traffic, the relationship between traffic flows is where the value lies. In a model where carriers charge for traffic, the revenue uplift from handling IoT-based data will be less, especially as data prices continue to fall."},
      {"subheading": "", "para": "Thus, charging for QoS performance and delivering on performance guarantees creates a mechanism by which CSPs are able to grow revenues and sustain investment in their networks."},
      {"subheading": "", "para": "Today we have examples in which closed private networks can deliver better results with a similar level of automation. Tracking consumers as they wander a contracting retail environment and selling that data to marketers, called telco-data-as-a-service (TDaaS), is conceivably just the beginning of data monetization possible for telcos. KUKA claims that its factory produces a Jeep Wrangler in 13.57 man-hours, 1.5 fewer than any other Jeep plant. In the case of GE wind turbines, wider-area managed communications have simplified the task of frequency control. In the case of mining, a wide-area (CSP-provided) solution would allow vehicles to easily move from mine to mine and potentially lower the overall communications costs for many mines."}
     ]
  },
  {
    "image": "img/blog-AI-games.jpg",
    "title": "A Brief History of AI & Games",
    "date":"27 Jun, 2018",
    "author" : "Aasya Alshehhi",
    "authors": [
      {"name": "Aasya Alshehhi", "section": "Network Automation"}
    ],
    "usemap": null,
    "state": "main.blogs.details({title:blog.title})",
    "btn": "Read",
    "video": false,
    "infographic": false,
    "headContent": [
      {"subheading": "", "para": "Machin and games: when human invented machines and computers, games were introduced as well for entertaining. The first game introduced with intelligence capabilities was tic-toctoe; the machine did not take long to defeat the human, as it was an easy game. Therefore, human could not take it as a scale to measure the intelligence of machines. After that, the two challenging games were introduced 1- Chess and 2- the Chinese ancient game \"Go\"."},
      {"subheading": "", "para": "Chess is a board game with 1047 possible board positions. In 1997, IBM Deep Blue (D-blue) became the first computer to defeat the Chess world champion Gary Kasparov; the supercomputer was able to calculate more than 200 million chess moves per second. A chess master were asked; how do you prepare for a chess game against a computer? \"I bring a hummer\" he said!"},
      {"subheading": "", "para": "\"Go\" is a complex two-player Chinese board game with 10250 possible board positions that took 3000 years to build its guidelines and rules; it requires strategic thinking, experience and creativity to master it. Google’s DeepMind have developed an intelligence computer program that can play Go. In 2016, AlphaGo was able to defeat the Go game world champion Lee Sedol in a one-week five-game Go match. the machine was able to win 4 games which is considered a major breakthrough for AI. \"The machine learned from the one-game-lost and it would never happen again\" –Specialists said after the match."},
      {"subheading": "", "para": "The mystery of GO and AI: In one of the matches between machine and human, in the 37th move, the machine decided to break one of the primary rules! This mysterious action by the machine have made people doubt the 3000 years of hard working to set the game’s rules. A scientist said \"I am convinced the machine won because it hasn’t learned from a human\" "},
      {"subheading": "", "para": "The surprise is that DeepMind have recently announced the development of AlphaGo Zero, the new version of the machine is able to defeat AlphaGo with 90% winning chance. "},
      {"subheading": "", "para": "The way AlpaGo Zero was developed is by eliminating the human knowledge and making the machine learns by itself and in its own way, because there is no human left on earth to be a competitor with the machine. Machines became capable to learn to play a better game than can played by the person who wrote its program in a remarkably short period."},
      {"subheading": "", "para": "It seems scary, but we are not in the stage to be scared yet, we would be when machines and robots will actually realize their existence! When a robot will wake up and realize that, it is a robot!"},
      {"subheading": "", "para": "With all of these experiments, we can raise a “terrifying” question; will we still need minds in the future? The good news is; it is amazing how bad machines are in common sense and emotions, asking questions and social skills. We can take an example when Uber machines decided to surge the prices during a hostage crisis in Sydney "},
      {"subheading": "", "para": "If we decide to disregard how intelligent and dominating machines are becoming, and how important is AI we will be left behind, and there is a no third option. However, it is a relief to know that the UAE have took actions to pioneer and lead the AI."}
    ]
  },

  {
    "image": "img/blog-mic-review.jpg",
    "title": "Blue Yeti Studio Mic Review",
    "date":"27 Jun, 2018",
    "author" : "Yousuf Alam",
    "authors": [
      {"name": "Yousuf Alam", "section": "Emerging Technology & Innovation"}
    ],
    "usemap": null,
    "state": "main.blogs.details({title:blog.title})",
    "btn": "Watch",
    "video": "img/blue-yeti-mic-review.mp4",
    "infographic": false,
    "headContent": [
      {"subheading": "", "para": "Having top quality tools to record vocal for a podcast, interview, and speech are essential to make the content delivery effective."},
      {"subheading": "","para": "We have picked the Blue Yeti Studio Pro Mic and demonstrated its features. The mic provides everything you need to hit the ground running with professional-quality recordings. It makes it easier and faster to record professional projects."},
      {"subheading": "","para": "Speakers: Dana Issam, Hammad Khalid, and Yousuf Alam"}
    ]
  },

  {
    "image": "img/blog-fifa-predict.jpg",
    "title": "AI Predicts FIFA World Cup 2018 Winner",
    "date":"27 Jun, 2018",
    "author" : "Yousuf Alam",
    "authors": [
      {"name": "Yousuf Alam", "section": "Emerging Technology & Innovation"}
    ],
    "usemap": null,
    "state": "main.blogs.details({title:blog.title})",
    "btn": "Read",
    "video": false,
    "infographic": false,
    "headContent": [
      {"subheading": "", "para": "The FIFA World Cup football matches are in full swing, and everyone’s enjoying watching their favorite teams in action. The teams are playing a great game by putting their best efforts. The 15TH July is going to be the decisive day to recognize the best football team who is going to hold the title of Champions."},
      {"subheading": "", "para": "The good news is that your wait is over because a team of AI researchers in Germany and Belgium have predicted the winner of FIFA World Cup 2018. Their dataset included factors, but weren’t limited to, FIFA rankings, the number of players who played together on a single club, and the number of champions league each has won. The researches ran 100,000 simulations to pick the victorious team, and the results revealed that Spain is most likely to win the championship. However, they have revealed that Germany may secure the championship if reaches Semi-final."},
      {"subheading": "", "para": "On the other hand, Goldman Sachs have developed an AI model to forecast the winner. The model ran 100,000 simulations considering the team individual attributes. It predicts that Germany and Brazil will face off in the final leading Brazil to lift the championship cup. Goldman Sachs said in its report, \"But the forecasts remain highly uncertain, even with the fanciest statistical techniques, simply because football is quite an unpredictable game. This is, of course, precisely why the World Cup will be so exciting to watch.\" "},
      {"subheading": "", "para": "AI is unlocking infinite possibilities by extracting the valuable insights from the data. The coming days will verify the credibility of these predictions."}

     ]
  },
  {
    "image": "img/mindReadingRobot-cover.png",
    "title": "ELI - Mind Reading Chatbot",
    "date":"4 Mar, 2018",
    "author" : "Melissa Tadena & eSpark",
    "authors": [
      {"name": "Melissa Tadena", "section": ""}
    ],
    "usemap": null,
    "state": "main.bot",
    "btn": "Play",
    "video": false,
    "infographic": false,
    "headContent": [
      {"subheading": "", "para": "One day, we will all have robots instead of smartphones."},
      {"subheading": "", "para": "The life-like droids will advise you on various matters, help you buy things, and even make your coffee just the way you like it."},
      {"subheading": "", "para": "That’s the forecast from some of the top minds in robotics and artificial intelligence who gathered in Pebble Beach, California, last week to debate the future at the G-Summit conference organized by GWC."},
      {"subheading": "", "para": "The group of scientists and researchers celebrated all the latest advances in the field of robotics, even as they acknowledged the limitations of today’s specimens."}
    ]
  }
]